{
	"name": "{{PROJECT_NAME}}",
	"pipelines": [
		{
            "name":"{{PIPELINE_NAME_1}}",
			"description": "Relevant description",
			"components" : ["{{COMPONENT_NAME_1}}", "{{COMPONENT_NAME_2}}"],
            "after_dependencies" : {
              "{{COMPONENT_NAME_1}}" : ["{{COMPONENT_NAME_2}}"]
            }
		},
		{
			"name":"{{PIPELINE_NAME_2}}",
            "action_type": "delete"
		},
		{
			"name": "{{PIPELINE_NAME_3}}",
			"action_type": "reactivate"
		}
	]
}
